{
  "profile": "tabular-data-package",
  "resources": [
    {
      "name": "homeless-in-usa",
      "path": "us_data.csv",
      "profile": "tabular-data-resource",
      "sources": [
        {
          "title": "HUD Exchange",
          "path": "https://www.hudexchange.info"
        },
      ],
      "schema": {
        "fields": [
          {
            "name": "year",
            "type": "string",
            "format": "default",
            "title": "Year",
            "description": "Year of collected data"
          },
          {
            "name": "total",
            "type": "integer",
            "format": "default",
            "title": "Total",
            "description": "Number of homeless by year"
          }
        ]
      },
      "title": "Homeless in USA by year",
      "format": "CSV",
      "encoding": "UTF-8"
    },
    {
      "name": "homeless-by-state",
      "path": "data.csv",
      "profile": "tabular-data-resource",
      "sources": [
        {
          "title": "HUD Exchange",
          "path": "https://www.hudexchange.info"
        },
      ],
      "schema": {
        "fields": [
          {
            "name": "year",
            "type": "year",
            "format": "default",
            "title": "Year",
            "description": "Year of collected data"
          },
          {
            "name": "state",
            "type": "string",
            "format": "default",
            "title": "State",
            "description": "The name of state"
          },
          {
            "name": "sheltered",
            "type": "integer",
            "format": "default",
            "title": "Sheltered",
            "description": "Number of sheltered "
          },
          {
            "name": "unsheltered",
            "type": "integer",
            "format": "default",
            "title": "Unsheltered",
            "description": "Number of unsheltered"
          },
          {
            "name": "total",
            "type": "integer",
            "format": "default",
            "title": "Total",
            "description": "Total number of homeless"
          }
        ]
      },
      "title": "Homeless in USA by year and by state",
      "format": "CSV",
      "encoding": "UTF-8"
    }
  ],
  "views": [
    {
      "name": "homelessnes-in-usa",
      "title": "homeless-in-usa-by-year",
      "resources": ["homeless-in-usa"],
      "specType": "simple",
      "spec": {
        "type": "line",
        "group": "year",
        "series": ["total"]
      }
    }
  ]
  "keywords": [
    "homeless",
    "homelessness",
    "housing",
    "sheltered"
  ],
  "name": "homeless-in-usa",
  "title": "Homeless people in USA by State and Year",
  "description": "Number of Homeless people by state and year in USA from 2007",
  "homepage": "https://gitlab.com/gavram/homelessness",
  "version": "1.0.1",
  "contributors": [
    {
      "title": "Dragan Avramovic",
      "role": "author"
    }
  ],
  "licenses": [
    {
      "name": "CC0-1.0",
      "title": "CC0 1.0",
      "path": "https://creativecommons.org/publicdomain/zero/1.0/"
    }
  ]
}